{
  "images" : [
    {
      "filename" : "Captura de Pantalla 2021-07-06 a la(s) 8.19.17.png",
      "idiom" : "universal",
      "scale" : "1x"
    },
    {
      "filename" : "Captura de Pantalla 2021-07-06 a la(s) 8.19.17-1.png",
      "idiom" : "universal",
      "scale" : "2x"
    },
    {
      "filename" : "Captura de Pantalla 2021-07-06 a la(s) 8.19.17-2.png",
      "idiom" : "universal",
      "scale" : "3x"
    }
  ],
  "info" : {
    "author" : "xcode",
    "version" : 1
  }
}
